<?xml version="1.0" encoding="utf-8"?>
<!-- Generator: Adobe Illustrator 22.0.1, SVG Export Plug-In . SVG Version: 6.00 Build 0)  -->
<svg version="1.1" id="Capa_1" xmlns="http://www.w3.org/2000/svg" xmlns:xlink="http://www.w3.org/1999/xlink" x="0px" y="0px"
	 width="99px" height="99px" viewBox="0 0 99 99" style="enable-background:new 0 0 99 99;" xml:space="preserve">
<path d="M26.2,15.9c0-6.1-5-11.1-11.1-11.1S4,9.7,4,15.9C4,16,4,86.2,4,86.2l21.6-66.6C26,18.4,26.2,17.1,26.2,15.9z"/>
<path d="M50.9,23.9c0-6.1-5-11.1-11.1-11.1c-5,0-9.3,3.3-10.6,7.9L7.5,87.3l41.2-56.7C50.1,28.8,50.9,26.4,50.9,23.9z"/>
<path d="M72,39.1C72,33,67,28,60.9,28c-3.8,0-7.2,1.9-9.2,4.8l0,0L10.5,89.5l56.6-41.2C70.1,46.3,72,42.9,72,39.1z"/>
<path d="M87,60.3c0-6.1-5-11.1-11.1-11.1c-2.5,0-4.7,0.8-6.6,2.1l0,0L12.7,92.5L78.9,71C83.6,69.7,87,65.4,87,60.3z"/>
<path d="M84.1,73.8c-1.3,0-2.5,0.2-3.7,0.6L13.8,96c0,0,70.2,0,70.3,0c6.1,0,11.1-5,11.1-11.1S90.3,73.8,84.1,73.8z"/>
</svg>
